{
  "version": "49",
  "calculationTime": {
    "calculationTime": "2018-08-25 18:36:35",
    "dataTime": "2018-08-23 19:11:00"
  },
  "loadBalancingTime": {},
  "timeSeriesModel": {
    "size": "40487",
    "average": 50.81530952973172,
    "median": 50.35935846821903,
    "upperPercentile": 127.38491593067462,
    "lowerPercentile": 33.982911246648285,
    "percentiles": [
      14.648375989484185,
      38.715826597405545,
      42.935042961470806,
      50.35935846821903,
      55.52239489813824,
      61.1877030996557,
      1480.973070611995
    ],
    "positiveAverage": 50.81530952973172,
    "positiveUpperPercentile": 127.38491593067462,
    "positivePercentiles": [
      14.648375989484185,
      38.715826597405545,
      42.935042961470806,
      50.35935846821903,
      55.52239489813824,
      61.1877030996557,
      1480.973070611995
    ],
    "monotonic": false,
    "lowerRankValue": 15.196277805510388,
    "upperRankValue": 292.0822424864106,
    "novelty": 0.0,
    "tsRange": null,
    "observedRange": {
      "lower": 14.32628340176038,
      "upper": 4166.355177915191
    },
    "timeInterval": {
      "start": "2018-07-26 15:58:00",
      "end": "2018-08-23 19:11:00"
    },
    "sampling": {
      "regular": true,
      "samplingPeriod": "60",
      "regularity": 99.99506002074791
    }
  },
  "deseasonedTSModel": null,
  "baselineModel": {
    "transform": {},
    "method": "ADDITIVE_LOG_HOLT_WINTERS",
    "model": {
      "hwInitialization": {
        "logSlope": 8.314920645712808E-8,
        "logIntercept": -123.60570904587131,
        "slope": 4.649236374656458E-6,
        "intercept": -7080.293992156755
      }
    },
    "lastSwitchTime": "2018-07-04 16:17:00"
  },
  "seasonalityModel": {
    "createdTimestamp": "2018-07-08 18:24:01",
    "createdDataTimestamp": "2018-07-08 16:18:00",
    "lastUpdatedTimestamp": "2018-08-25 18:36:37",
    "lastUpdatedDataTimestamp": "2018-08-23 19:11:00",
    "season": {
      "seasonLength": "86400",
      "sampling": {
        "regular": true,
        "samplingPeriod": "60",
        "regularity": 99.98585572842998
      },
      "version": "1531063441",
      "timeZone": null
    },
    "status": "SUCCESS_SEASON"
  },
  "anomalyModel": {
    "anomalyDurationMedian": 60.0,
    "anomalyPerSample": 0.005393604725825093,
    "anomalyProbability": 0.02380834651898734,
    "lowerMagnitudeAverage": 11.132880760181488,
    "upperMagnitudeAverage": 731.5549791316051
  }
}